{
  "teamName": "Unilever",
  "dataSources": [{
    "filteredDataName": "Walmart_1234_MWCD_PC_Gum1_All1",
    "dataSourceName": "MWCD_PC_Gum1_All1",
    "dataScopeType": "store",
    "dataScopeId": "Walmart 1234",
    "columns": [{
      "name": "MatchCondition",
      "type": "string"
    },
	{
      "name": "Rank",
      "type": "string"
    },
	{
      "name": "Description",
      "type": "string"
    },
	{
      "name": "Type",
      "type": "string"
    },
	{
      "name": "UPCCode",
      "type": "string"
    },
	{
      "name": "DollarSalesPcntChgYAG",
      "type": "string"
    },
	{
      "name": "ACVWtdDist",
      "type": "string"
    },
	{
      "name": "AvgDollarSalesPerStore",
      "type": "string"
    }
	
	],

    "mockData": [
      { "MatchCondition": "W", "Rank": 1, "Description": "MOCKED, 5 RAIN SPEARMINT GUM STCK IC NS PKG SNGL 15 COUNT 15 CT", "Type": "Single", "UPCCode": "2200000514", "DollarSalesPcntChgYAG": -2.5, "ACVWtdDist": 87.9, "AvgDollarSalesPerStore": 340.14 },
	  { "MatchCondition": "W", "Rank": 2, "Description": "MOCKED, 5 COBALT PEPPERMINT GUM STCK IC NS PKG SNGL 15 COUNT 15 CT", "Type": "Single", "UPCCode": "2200000512", "DollarSalesPcntChgYAG": -5.3, "ACVWtdDist": 87.4, "AvgDollarSalesPerStore": 336.55 },
	  { "MatchCondition": "W", "Rank": 3, "Description": "MOCKED, EXTRA SPEARMINT GUM STCK IC NS PKG SNGL 15 COUNT 15 CT", "Type": "Single", "UPCCode": "2200000899", "DollarSalesPcntChgYAG": 4.0, "ACVWtdDist": 81.7, "AvgDollarSalesPerStore": 276.11 },
	  { "MatchCondition": "W", "Rank": 4, "Description": "MOCKED, TRIDENT SPEARMINT GUM TB IC NS PKG SNGL 18 COUNT 18 CT", "Type": "Single", "UPCCode": "1254661531", "DollarSalesPcntChgYAG": 2.1, "ACVWtdDist": 83.6, "AvgDollarSalesPerStore": 266.61 },
	  { "MatchCondition": "W", "Rank": 5, "Description": "MOCKED, DOUBLEMINT DOUBLEMINT GUM STCK IC NS PKG SNGL 15 COUNT 15 CT", "Type": "Single", "UPCCode": "2200000666", "DollarSalesPcntChgYAG": -2.6, "ACVWtdDist": 85.2, "AvgDollarSalesPerStore": 239.33 }
	 ]
  },
  {
    "filteredDataName": "Walmart_1234_MWCD_SalesBy_All1",
    "dataSourceName": "MWCD_SalesBy_All1",
    "dataScopeType": "store",
    "dataScopeId": "Walmart 1234",
    "columns": [{
      "name": "Category",
      "type": "string"
    },
	{
      "name": "Manufacturer",
      "type": "string"
    },
	{
      "name": "Brand",
      "type": "string"
    },
	{
      "name": "DollarYTD",
      "type": "string"
    },
	{
      "name": "DollarYagoYtd",
      "type": "string"
    },
	{
      "name": "DollarChangeYTD",
      "type": "string"
    }
	],

    "mockData": [
	  {"Category":"Chocolate","Manufacturer":"Hershey","Brand":"MOCKED, 5th Avenue","DollarYTD":"35.1","DollarYagoYtd":"130","DollarChangeYTD":"0.346778"},
	  {"Category":"Chocolate","Manufacturer":"Hershey","Brand":"MOCKED, Hersheys","DollarYTD":"214.88","DollarYagoYtd":"135.2","DollarChangeYTD":"0.589349112"}
    ]
  }  
  ]
}